<svg id="ok.svg" xmlns="http://www.w3.org/2000/svg" width="11.81" height="19.85" viewBox="0 0 11.81 19.85">
  <defs>
    <style>
      .cls-1 {
        fill-rule: evenodd;
      }
    </style>
  </defs>
  <path id="ok" class="cls-1" d="M1257.37,1332.66a2.03,2.03,0,0,0,.65,1.5,2.083,2.083,0,0,0,1.54.63,2.115,2.115,0,0,0,1.53-3.63,2.1,2.1,0,0,0-1.53-.63,2.122,2.122,0,0,0-1.54.63,2.014,2.014,0,0,0-.65,1.5h0Zm-3.08,0a4.813,4.813,0,0,1,1.54-3.59,5.414,5.414,0,0,1,7.46,0,4.943,4.943,0,0,1,0,7.17,5.388,5.388,0,0,1-7.46,0,4.792,4.792,0,0,1-1.54-3.58h0Zm10.34,12.21a1.419,1.419,0,0,1,0,2.11,1.608,1.608,0,0,1-1.11.44,1.5,1.5,0,0,1-1.08-.44l-2.88-2.8-2.9,2.8a1.55,1.55,0,0,1-1.1.44,1.51,1.51,0,0,1-1.09-.44,1.4,1.4,0,0,1-.45-1.04,1.483,1.483,0,0,1,.45-1.07l2.95-2.83a10.118,10.118,0,0,1-3.07-1.28,1.465,1.465,0,0,1-.68-0.97,1.493,1.493,0,0,1,.21-1.17,1.553,1.553,0,0,1,2.12-.46,6.9,6.9,0,0,0,7.09,0,1.48,1.48,0,0,1,1.18-.2,1.44,1.44,0,0,1,.97.66,1.5,1.5,0,0,1,.18,1.16,1.52,1.52,0,0,1-.67.98,10.386,10.386,0,0,1-3.06,1.28l2.94,2.83h0Z" transform="translate(-1253.66 -1327.56)"/>
</svg>
