<svg id="fb_banner.svg" data-name="fb banner.svg" xmlns="http://www.w3.org/2000/svg" width="34.937" height="48.094" viewBox="0 0 34.937 48.094">
  <defs>
    <style>
      .cls-1 {
        fill: #dc3e47;
        fill-rule: evenodd;
      }
    </style>
  </defs>
  <path id="icon" class="cls-1" d="M854.426,606.574l2.133-8.641a23.316,23.316,0,0,0-5.093-1.579c-3.876-.907-10.734-3.334-15.993,2.706-3.053,3.509-4.2,9.335-4.2,9.335l-7.381-1.783-2.26,9.159,7.475,1.805-5.134,22.629,12.293,2.968,5.135-22.637,9.014,2.176,2.229-9.028-8.673-2.094s0.29-4.489,3.178-5.7C849.129,605.052,854.426,606.574,854.426,606.574Z" transform="translate(-821.625 -595.094)"/>
</svg>
