<?xml version="1.0" encoding="utf-8"?>
<!-- Generator: Adobe Illustrator 21.0.0, SVG Export Plug-In . SVG Version: 6.00 Build 0)  -->
<svg version="1.1" id="Layer_1" xmlns="http://www.w3.org/2000/svg" xmlns:xlink="http://www.w3.org/1999/xlink" x="0px" y="0px"
	 viewBox="0 0 88 52" style="enable-background:new 0 0 88 52;" xml:space="preserve">
<style type="text/css">
	.st0{fill:#DF3F48;}
</style>
<path class="st0" d="M73.1,25.5c0,0,11.6-16.5,12.7-21.9c0.4-1.9-0.5-3-2.5-3c0,0-6.7,0-10.1,0c-2.3,0-3.1,1-3.8,2.5
	c0,0-5.4,11.7-12.1,19.1c-2.1,2.4-3.2,3.1-4.4,3.1c-0.9,0-1.4-0.8-1.4-2.9V3.4c0-2.6-0.3-3.4-2.5-3.4H33.1c-1.2,0-2,0.7-2,1.7
	c0,2.5,3.8,3,3.8,9.8v13.9c0,2.8-0.2,3.9-1.5,3.9c-3.5,0-11.7-12-16.3-25.7C16.2,0.8,15.2,0,12.6,0H2.5C1.1,0,0,1,0,2.5
	c0,2.7,3.1,15.3,15.5,32.1C23.8,45.9,34.7,52,44.5,52c6,0,7.4-1,7.4-3.6v-8.7c0-2.2,0.8-3.1,2.1-3.1c1.4,0,3.8,0.4,9.5,6.1
	c6.8,6.5,7.2,9.2,10.9,9.2h11.3c1.2,0,2.2-0.5,2.2-2.5c0-2.6-3.3-7.1-8.4-12.6c-2.1-2.8-5.5-5.8-6.5-7.2
	C71.5,28.1,72,27.2,73.1,25.5z"/>
</svg>
